Project2 – CSUF_DS
…
ℹ Use `spec()` to retrieve the full column specification for this data.
ℹ Specify the column types or set `show_col_types = FALSE` to quiet this message.

# Randomly sample 200 rows to expand the dataset
set.seed(42)
df_extra <- df %>% sample_n(200, replace = TRUE)

df_extended <- bind_rows(df, df_extra)

df_extended

# A tibble: 300 × 5
   Species number_rays disk_diameter ray_diameter stem_length
   <chr>         <dbl>         <dbl>        <dbl>       <dbl>
 1 F                13           1.5          5.5        16  
 2 F                13           1.5          5.5        19  
 3 F                11           1.1          3.5         9.3
 4 F                12           1.4          3.2         4  
 5 F                11           2            3.7         2.5
 6 F                 8           1.1          3.5         2.8
 7 F                13           1.3          4.5        15.5
 8 F                13           1.5          4.5        11.3
 9 F                11           1.5          5           9  
10 F                12           1.5          4.5         7.7
# ℹ 290 more rows
…
